Individual|key|lastName|firstName|birthDt|genderCd|occupation|employer|selfEmployedInd|category|maritalStatus|socialTitle|deceasedInd|consentCd|consentDt|CanadianAddress|key|addressTypeCd|startDt|civicNum|streetName|streetType|municipality|territory|postalCode|overrideAddressInd|InternationalAddress|TelephoneNumber|key|telephoneTypeCd|telephoneLineTypeCd|startDt|telephoneNum|doNotCallInd|Email|key|emailTypeCd|startDt|emailAddress|principalLanguageCd|Business
Y|TDCIF1081100021|Goldhar|Adam|8/9/1990|M|IT|Unemployed|0|10|ST|M|0|11|9/15/2017|Y|TDCIF1081100022|RP|9/15/2017|702|Donald RD|st|Lockport|MN|R1A 3J9|FALSE||Y|TDCIF108110023|1|TL|9/15/2017|204-786-6588|FALSE|||Y|TDCIF108110024|1|9/15/2017|testwork@gmail.com|EN
Y|TDCIF108110001|Scalar |David|6/5/1989|M|IT|CTS|0|10|SI|M|0|11|8/30/2017|Y|TDCIF108110002|RP|8/30/2017|60|Patterson Blvd SW |blvd|Calgary|AB|T3H 2E1 |FALSE||Y|TDCIF108110002|1|TL|8/30/2017|204-567-5634|FALSE|Y|TDCIF108110002|1|8/30/2017|testwork@gmail.com|EN
Y|TDCIF1081100101|Nicolas|Clement|8/7/1989|M|IT|Unemployed|0|10|SI|M|0|11|9/15/2017|Y|TDCIF1081100102|RP|9/15/2017|1695|Saint-Joseph Boul|st|Montreal|QC|H2J 1N1|FALSE||y|TDCIF108110103|1|TL|9/15/2017|416-564-3423|FALSE|y|TDCIF108110104|1|9/15/2017|testwork@gmail.com|EN
y|TDCIF1081100131|Minnervini|Deanna|8/10/1987|F|IT|Unemployed|0|10|SI|F|0|11|9/15/2017|Y|TDCIF1081100131|RP|9/15/2017|301|Hoge St|st|Whitehorse|YT|Y1A 1V8|FALSE||Y|TDCIF1081100131|1|TL|9/15/2017|867-993-6860|FALSE|y|TDCIF1081100131|1|9/15/2017|testwork@gmail.com|EN
Y|TDCIF1081100031|James|Erika|9/15/2017|F|IT|Unemployed|0|10|SI||0|11|9/15/2017|Y|TDCIF1081100031|RP|9/15/2017|2321|Route 490|st|Ammon|NB|RE1G4R6|FALSE||y|TDCIF1081100031|1|TL|9/15/2017|506-657-6610|FALSE|Y|TDCIF1081100031|1|9/15/2017|testwork@gmail.com|EN
Y|TDCIF10811001|Smith|Jack|8/1/1970|M|IT|CTS|0|10|MA|M|0|11|8/30/2017|Y|TDCIF10811001|RP|8/30/2017|200|25th|st|Calgary|AB|T2A7H8|FALSE||y|TDCIF10811001|1|TL|8/30/2017|4033051672|FALSE|Y|TDCIF10811001|1|8/30/2017|jacksmith@gmail.com|EN
Y|TDCIF108110084|Miller|Jason|8/10/2987|M|IT|Unemployed|0|10|SI|M|0|11|9/15/2017|Y|TDCIF108110084|RP|9/15/2017|300|King street|st|Dundas|ON|L9H 1W5|FALSE||Y|TDCIF108110084|1|TL|9/15/2017|416-876-4531|FALSE|Y|TDCIF108110084|1|9/15/2017|testwork@gmail.com|EN
Y|TDCIF1081100061|Day|Jason|8/9/1987|M|IT|Unemployed|0|10|SI|M|0|11|9/15/2017|Y|TDCIF1081100062|RP|9/15/2017|6998|Highway 1|st|Coldbrook|NS|B4R 1B6|FALSE||Y|TDCIF1081100062|1|TL|9/15/2017|902-5656555|FALSE|Y|TDCIF1081100062|1|9/15/2017|testwork@gmail.com|EN
Y|TDCIF108110093|Cowan|Jeffry|8/7/1989|M|IT|Unemployed|0|10|SI|M|0|11|9/15/2017|Y|TDCIF108110093|RP|9/15/2017|5328|Trans Canada HWY|st|Belfast|PEI|C0A 1A0|FALSE||Y|TDCIF108110093|1|TL|9/15/2017|902-368-4237|FALSE|y|TDCIF108110094|1|9/15/2017|testwork@gmail.com|EN
Y|TDCIF1081100121|Gautrand|Manuel|9/7/1989|M|IT|Unemployed|0|10|SI|M|0|11|9/15/2017|Y|TDCIF1081100121|RP|9/15/2017|1800|22ND AVE|st|Swift Current|SK|S9H 0E5|FALSE||Y|TDCIF1081100121|1|TL|9/15/2017|306-244-2311|FALSE|Y|TDCIF1081100121|1|9/15/2017|testwork@gmail.com|EN
Y|TDCIF1081100051|Myers|Mike|7/8/1987|M|IT|Unemployed|0|10|SI|M|0|11|9/15/2017|y|TDCIF1081100051|RP|9/15/2017|27|Industrial DR|st|Hay River|NT|X0E 0R6|FALSE||Y|TDCIF1081100051|1|TL|9/15/2017|709-738-4888|FALSE|Y|TDCIF1081100051|1|9/15/2017|testwork@gmail.com|EN
y|TDCIF1081100041|Kumar|Mona|8/9/1989|F|IT|Unemployed|0|10|SI|F|0|11|9/15/2017|Y|TDCIF1081100041|RP|9/15/2017|34|water ST|st|Carbonear|NL|A1Y 1B1|FALSE||Y|TDCIF1081100041|1|TL|9/15/2017|709-738-4888|FALSE|Y|TDCIF1081100041|1|9/15/2017|testwork@gmail.com|EN
Y|TDCIF1081100071|Paul|Winston|8/7/1986|M|IT|Unemployed|0|10|SI|M|0|11|9/15/2017|Y|TDCIF1081100071|RP|9/15/2017||PO BOX 1|st|Resolute|NU|X0A 0V0|FALSE||Y|TDCIF1081100071|1|TL|9/15/2017|204-567-6534|FALSE|Y|TDCIF1081100071|1|9/15/2017|testwork@gmail.com|EN
Y|TDCIF1081100011|Walker|Steve|5/7/1989|M|IT|Unemployed|0|10|SI|M|0|11|9/15/2017|Y|TDCIF1081100011|RP|9/15/2017|662|Crescent Bay RD|st|Nakusp|BC|V0G 1R1|FALSE||Y|TDCIF1081100011|1|TL|9/15/2017|416-675-4534|FALSE|Y|TDCIF1081100011|1|9/15/2017|testwork@gmail.com|EN
